An interactive treemap of media franchise revenue by category | Zhi Yang
…
dat3$newbin <- with(dat3, interaction(revenue_category,  bin)) 

dat3$newbin <- factor(dat3$newbin, as.character(unique(dat3$newbin)))

dat3 %>% group_by(revenue_category, bin) %>% select(newbin)

## Adding missing grouping variables: `revenue_category`, `bin`

## # A tibble: 321 x 3
## # Groups:   revenue_category, bin [31]
##    revenue_category bin   newbin      
##    <fct>            <fct> <fct>       
##  1 Book sales       1     Book sales.1
##  2 Book sales       1     Book sales.1
##  3 Book sales       2     Book sales.2
##  4 Book sales       2     Book sales.2
##  5 Book sales       2     Book sales.2
##  6 Book sales       4     Book sales.4
##  7 Book sales       4     Book sales.4
##  8 Box Office       1     Box Office.1
##  9 Box Office       1     Box Office.1
## 10 Box Office       1     Box Office.1
## # ... with 311 more rows
…
